{
    "message": {
      "UserId": "e3e9ce18-89fa-4471-983f-153ee5d785c2",
      "UserName": "Rodrigo",
      "UserEmail": "rodrigo@gmail.com",
      "UserSwipeAccountId": "0aab39a630069a13b2a4d993a07a7379cee78a3d0fdffb51bd74449c4ca8204f",
      "UserBalance": [
        {
          "asset_id": "be5264af54effe372f91a86a71e234e542c3b996548037dcbf273ec80b01abc6",
          "asset_code": "STRINGCOIN",
          "balance": "1546.9900000"
        },
        {
          "asset_id": "4409e9951caa7569f2c33bee093a6475f54d5fed3d465ea94a874f9ad495d1bf",
          "asset_code": "TOKEN",
          "balance": "110.0000000"
        }
      ],
      "UserTags": []
    }
  }